{
    "/verifier/verify/": {
        "post": {
            "operationId": 1,
            "summary": "",
            "description": "Get list",
            "parameters": [
                {
                    "description": "Language letter code (depending on setup: en, es, de, ar, eng, spa, es_AR, en_US)",
                    "in": "header",
                    "name": "Accept-Language",
                    "example": "en",
                    "required": false,
                    "schema": {
                        "type": "string"
                    }
                }
            ],
            "tags": [
                "VerifierVerifyProxy"
            ],
            "responses": {
                "400": {
                    "description": "Bad Request",
                    "content": {
                        "application/json": {
                            "schema": {
                                "type": "object",
                                "description": "Post should throw bad request exception when empty body provided",
                                "properties": {
                                    "error": {
                                        "type": "string",
                                        "example": "Bad Request"
                                    },
                                    "code": {
                                        "type": "number",
                                        "example": 400
                                    }
                                }
                            }
                        }
                    }
                }
            },
            "requestBody": {
                "description": "",
                "content": {
                    "application/json": {
                        "schema": {
                            "type": "object",
                            "description": "Get list",
                            "properties": {
                                "id_token": {
                                    "type": "string",
                                    "example": ""
                                },
                                "vp_token": {
                                    "type": "string",
                                    "example": "****.****.****"
                                },
                                "presentation_submission": {
                                    "type": "string",
                                    "example": "{\"definition_id\" : \"1\", \"descriptor_map\" : [{\"format\" : \"jwt_vp\", \"id\" : \"0\", \"path\" : \"$\", \"path_nested\" : {\"format\" : \"jwt_vc\", \"id\" : \"0\", \"path\" : \"$.verifiableCredential[0]\"}}], \"id\" : \"1\"}"
                                },
                                "state": {
                                    "type": "string",
                                    "example": "an90NZHYR6OVIPjPhLrlNA"
                                }
                            }
                        }
                    }
                }
            }
        }
    }
}